[
    {
        "firstName": "Miss Ulises Rowe",
        "lastName": "Johnson Hermann",
        "email": "Kylee13@hotmail.com",
        "phone": "599.477.7644 x1839",
        "city": "London",
        "statement": {
            "verb": {
                "display": {
                    "en-GB": "experienced"
                }
            },
            "object": {
                "definition": {
                    "type": "http://cslearning.gov.uk/activities/elearning"
                }
            },
            "actor": {
                "account": {
                    "name": "Kylee13@hotmail.com"
                }
            }
        },
        "ip": "104.149.214.70",
        "avatar": "Laborum est qui est ipsum hic quisquam.",
        "ttl": -1
    },
    {
        "firstName": "Manley Wiegand",
        "lastName": "Mittie Tromp",
        "email": "Michelle_Gleason@hotmail.com",
        "phone": "299-566-7600 x401",
        "city": "London",
        "statement": {
            "verb": {
                "display": {
                    "en-GB": "experienced"
                }
            },
            "object": {
                "definition": {
                    "type": "http://cslearning.gov.uk/activities/elearning"
                }
            },
            "actor": {
                "account": {
                    "name": "Michelle_Gleason@hotmail.com"
                }
            }
        },
        "ip": "69.161.2.98",
        "avatar": "Delectus magnam voluptatibus praesentium odit.",
        "ttl": -1
    },
    {
        "firstName": "Malachi Bins",
        "lastName": "Kyler Moore",
        "email": "Shaylee_Tillman@hotmail.com",
        "phone": "559.328.7710 x2317",
        "city": "London",
        "statement": {
            "verb": {
                "display": {
                    "en-GB": "experienced"
                }
            },
            "object": {
                "definition": {
                    "type": "http://cslearning.gov.uk/activities/elearning"
                }
            },
            "actor": {
                "account": {
                    "name": "Shaylee_Tillman@hotmail.com"
                }
            }
        },
        "ip": "173.96.186.189",
        "avatar": "Ut labore eius sunt autem nulla inventore pariatur qui.",
        "ttl": -1
    },
    {
        "firstName": "Hadley Leannon",
        "lastName": "Oral Howell III",
        "email": "Golda14@hotmail.com",
        "phone": "(205) 766-9472 x290",
        "city": "London",
        "statement": {
            "verb": {
                "display": {
                    "en-GB": "experienced"
                }
            },
            "object": {
                "definition": {
                    "type": "http://cslearning.gov.uk/activities/elearning"
                }
            },
            "actor": {
                "account": {
                    "name": "Golda14@hotmail.com"
                }
            }
        },
        "ip": "80.30.39.176",
        "avatar": "Fuga omnis nemo corrupti non atque in.",
        "ttl": -1
    },
    {
        "firstName": "Earline Leffler",
        "lastName": "Roslyn Jacobi",
        "email": "Ned_Deckow48@yahoo.com",
        "phone": "216-014-5264",
        "city": "London",
        "statement": {
            "verb": {
                "display": {
                    "en-GB": "experienced"
                }
            },
            "object": {
                "definition": {
                    "type": "http://cslearning.gov.uk/activities/elearning"
                }
            },
            "actor": {
                "account": {
                    "name": "Ned_Deckow48@yahoo.com"
                }
            }
        },
        "ip": "2.89.77.163",
        "avatar": "Optio ut quia ut.",
        "ttl": -1
    },
    {
        "firstName": "Garry Marquardt",
        "lastName": "Quincy Funk",
        "email": "Xavier.Denesik@gmail.com",
        "phone": "092.214.7647",
        "city": "London",
        "statement": {
            "verb": {
                "display": {
                    "en-GB": "experienced"
                }
            },
            "object": {
                "definition": {
                    "type": "http://cslearning.gov.uk/activities/elearning"
                }
            },
            "actor": {
                "account": {
                    "name": "Xavier.Denesik@gmail.com"
                }
            }
        },
        "ip": "12.185.57.127",
        "avatar": "Numquam quia autem.",
        "ttl": -1
    },
    {
        "firstName": "Brandy Romaguera",
        "lastName": "Randall Marks",
        "email": "Myrna93@yahoo.com",
        "phone": "(152) 568-9864 x3039",
        "city": "London",
        "statement": {
            "verb": {
                "display": {
                    "en-GB": "experienced"
                }
            },
            "object": {
                "definition": {
                    "type": "http://cslearning.gov.uk/activities/elearning"
                }
            },
            "actor": {
                "account": {
                    "name": "Myrna93@yahoo.com"
                }
            }
        },
        "ip": "241.111.187.167",
        "avatar": "Sit voluptatem beatae ut et.",
        "ttl": -1
    },
    {
        "firstName": "Rafael Christiansen",
        "lastName": "Lilian Smitham",
        "email": "Leann_Ullrich@hotmail.com",
        "phone": "087.414.3773 x1322",
        "city": "London",
        "statement": {
            "verb": {
                "display": {
                    "en-GB": "http://patsy.org"
                }
            },
            "object": {
                "definition": {
                    "type": "https://jake.info"
                }
            },
            "actor": {
                "account": {
                    "name": "Leann_Ullrich@hotmail.com"
                }
            }
        },
        "ip": "47.141.233.85",
        "avatar": "Nihil corrupti quibusdam nobis.",
        "ttl": -1
    },
    {
        "firstName": "Lulu Osinski",
        "lastName": "Vladimir Hyatt",
        "email": "Hilma_Schulist@hotmail.com",
        "phone": "928-890-5883 x7689",
        "city": "London",
        "statement": {
            "verb": {
                "display": {
                    "en-GB": "https://bennie.biz"
                }
            },
            "object": {
                "definition": {
                    "type": "https://pink.net"
                }
            },
            "actor": {
                "account": {
                    "name": "Hilma_Schulist@hotmail.com"
                }
            }
        },
        "ip": "12.169.123.39",
        "avatar": "Saepe tempore officiis nesciunt porro.",
        "ttl": -1
    },
    {
        "firstName": "Xander Dach",
        "lastName": "Erna Christiansen",
        "email": "Elisha_Lehner@yahoo.com",
        "phone": "(173) 930-2107 x891",
        "city": "London",
        "statement": {
            "verb": {
                "display": {
                    "en-GB": "https://hershel.com"
                }
            },
            "object": {
                "definition": {
                    "type": "http://janae.name"
                }
            },
            "actor": {
                "account": {
                    "name": "Elisha_Lehner@yahoo.com"
                }
            }
        },
        "ip": "148.207.94.138",
        "avatar": "Ea debitis quia impedit aut distinctio sint accusamus laudantium.",
        "ttl": -1
    }
]